<svg xmlns="http://www.w3.org/2000/svg" xmlns:xlink="http://www.w3.org/1999/xlink" width="609" height="609" viewBox="0 0 609 609">
    <defs>
        <linearGradient id="a" x1="81.035%" x2="36.325%" y1="92.806%" y2="5.051%">
            <stop offset="0%" stop-color="#604FFF"/>
            <stop offset="100%" stop-color="#FC9B95"/>
        </linearGradient>
        <path id="b" d="M.693 0h609v609h-609z"/>
        <filter id="c" width="119.7%" height="119.7%" x="-9.9%" y="-9.9%" filterUnits="objectBoundingBox">
            <feGaussianBlur in="SourceGraphic" stdDeviation="20"/>
        </filter>
        <filter id="e" width="119.3%" height="119.2%" x="-9.6%" y="-9.6%" filterUnits="objectBoundingBox">
            <feGaussianBlur in="SourceGraphic" stdDeviation="20"/>
        </filter>
    </defs>
    <g fill="none" fill-rule="evenodd" transform="translate(-1)">
        <ellipse cx="306" cy="304.5" stroke="url(#a)" stroke-width="4" rx="302" ry="302.5"/>
        <g transform="translate(.307)">
            <mask id="d" fill="#fff">
                <use xlink:href="#b"/>
            </mask>
            <ellipse cx="108" cy="290.5" fill="#000" filter="url(#c)" mask="url(#d)" rx="304" ry="304.5"/>
            <ellipse cx="504.5" cy="291" fill="#000" filter="url(#e)" mask="url(#d)" rx="311.5" ry="312"/>
        </g>
    </g>
</svg>
